…
Each species recorded in the Africa Bird Atlas is assigned a species ID, referred to in the data as Spp. To pull data for a species, you’ll need to know it’s species Ids. There are two ways to figure out the Spp for a particular species.

Finding species Ids (Spp)

If you want to quickly pull data for one species, I would recommend using the website to search and filter the Spp. Go to the species page here. Type in the common or scientific name for the species and use the number that appears.

However, if you’re search for multiple species, the process can be a bit tedious. To make the process easier, you can use the library itself.

To find ids for multiple species, the first step is to pull the species list for a particular country. This can be done by using get_species_list() function. This function only takes one argument: the name of the country.

# get species list for nigeria
nigeria_species_list <- get_species_list("nigeria")

nigeria_species_list
#> # A tibble: 923 x 5
#>      Spp Common_group   Common_species           Genus         Species     
#>    <int> <chr>          <chr>                    <chr>         <chr>       
#>  1  1109 Alethe         Brown-chested            Alethe        poliocephala
#>  2  2540 Alethe         Fire-crested             Pseudalethe   castanea    
#>  3  2660 Ant-thrush     White-tailed             Neocossyphus  poensis     
#>  4  2650 Anteating-chat Northern                 Myrmecocichla aethiops    
#>  5  1144 Antpecker      Woodhouse's (Red-headed) Parmoptila    woodhousei  
#>  6   622 Apalis         Bar-throated             Apalis        thoracica   
#>  7  3078 Apalis         Black-capped             Apalis        nigriceps   
#>  8  3084 Apalis         Black-collared           Apalis        pulchra     
#>  9  3074 Apalis         Black-throated           Apalis        jacksoni    
#> 10  1099 Apalis         Buff-throated            Apalis        rufogularis 
#> # ... with 913 more rows
…
