Extract raw data from the Africa Bird Atlas — extract_all • rabm
…
    Examples

# extract data for all of Kenya for Jan 2019

extract_all(
start_date = '2019-01-01',
end_date = '2019-02-01',
region_type = 'country',
region_id = 'kenya',
return_type = 'data',
return_format = 'CSV')
#> # A tibble: 4,712 x 27
#>    CardNo StartDate  EndDate    StartTime Pentad ObserverNo ObserverName
#>    <chr>  <date>     <date>     <time>    <chr>       <dbl> <chr>       
#>  1 0055_~ 2019-01-25 2019-01-27 15:54     0055_~      10723 Dr C Jackson
#>  2 0055_~ 2019-01-25 2019-01-27 15:54     0055_~      10723 Dr C Jackson
#>  3 0055_~ 2019-01-25 2019-01-27 15:54     0055_~      10723 Dr C Jackson
#>  4 0055_~ 2019-01-25 2019-01-27 15:54     0055_~      10723 Dr C Jackson
#>  5 0055_~ 2019-01-25 2019-01-27 15:54     0055_~      10723 Dr C Jackson
#>  6 0055_~ 2019-01-25 2019-01-27 15:54     0055_~      10723 Dr C Jackson
#>  7 0055_~ 2019-01-25 2019-01-27 15:54     0055_~      10723 Dr C Jackson
#>  8 0055_~ 2019-01-25 2019-01-27 15:54     0055_~      10723 Dr C Jackson
#>  9 0055_~ 2019-01-25 2019-01-27 15:54     0055_~      10723 Dr C Jackson
#> 10 0055_~ 2019-01-25 2019-01-27 15:54     0055_~      10723 Dr C Jackson
#> # ... with 4,702 more rows, and 20 more variables: TotalHours <dbl>,
#> #   Hour1 <dbl>, Hour2 <dbl>, Hour3 <dbl>, Hour4 <dbl>, Hour5 <dbl>,
#> #   Hour6 <dbl>, Hour7 <dbl>, Hour8 <dbl>, Hour9 <dbl>, Hour10 <dbl>,
#> #   TotalSpp <dbl>, InclNight <dbl>, AllHabitats <dbl>, Spp <dbl>,
#> #   Common_group <chr>, Common_species <chr>, Genus <chr>, Species <chr>,
#> #   Sequence <dbl>
…
